{
    "itemSelector" : "#content_container li.videoblock_list",
    "fields" : [
        {
            "property"         : "id",
            "propertySelector" : "",
            "propertyType"     : "attribute",
            "propertyName"     : "id",
            "propertyRegex"    : "/([0-9]+)/"
        },
        {
            "property"         : "title",
            "propertySelector" : "img",
            "propertyType"     : "attribute",
            "propertyName"     : "alt",
            "propertyRegex"    : ""
        },
        {
            "property"         : "thumb",
            "propertySelector" : "img",
            "propertyType"     : "attribute",
            "propertyName"     : "data-src",
            "propertyRegex"    : ""
        },
        {
            "property"         : "poster",
            "propertySelector" : "img",
            "propertyType"     : "attribute",
            "propertyName"     : "data-src",
            "propertyRegex"    : "/m=[a-zA-Z0-9]+?\\///"
        },
        {
            "property"         : "mediabook",
            "propertySelector" : "img",
            "propertyType"     : "attribute",
            "propertyName"     : "data-mediabook",
            "propertyRegex"    : ""
        },
        {
            "property"         : "duration",
            "propertySelector" : ".duration",
            "propertyType"     : "content",
            "propertyName"     : "",
            "propertyRegex"    : "/(\\d+:\\d+)/"
        },
        {
            "property"         : "url",
            "propertySelector" : "a.video_link",
            "propertyType"     : "attribute",
            "propertyName"     : "href",
            "propertyRegex"    : "/^\\//http:\\/\\/www.redtube.com\\//"
        }
    ]
}
