{
    "itemSelector" : "div.video-thumb",
    "fields" : [
        {
            "property"         : "id",
            "propertySelector" : "",
            "propertyType"     : "attribute",
            "propertyName"     : "data-video-id",
            "propertyRegex"    : ""
        },
        {
            "property"         : "title",
            "propertySelector" : "a.video-thumb-info__name",
            "propertyType"     : "content",
            "propertyName"     : "",
            "propertyRegex"    : ""
        },
        {
            "property"         : "thumb",
            "propertySelector" : "img",
            "propertyType"     : "attribute",
            "propertyName"     : "src",
            "propertyRegex"    : ""
        },
        {
            "property"         : "poster",
            "propertySelector" : "img",
            "propertyType"     : "attribute",
            "propertyName"     : "src",
            "propertyRegex"    : ""
        },
        {
            "property"         : "mediabook",
            "propertySelector" : "a.thumb-image-container",
            "propertyType"     : "attribute",
            "propertyName"     : "data-previewvideo",
            "propertyRegex"    : ""
        },
        {
            "property"         : "duration",
            "propertySelector" : "div.thumb-image-container__duration span",
            "propertyType"     : "content",
            "propertyName"     : "",
            "propertyRegex"    : ""
        },
        {
            "property"         : "url",
            "propertySelector" : "a.thumb-image-container",
            "propertyType"     : "attribute",
            "propertyName"     : "href",
            "propertyRegex"    : ""
        }
    ]
}
