{
    "itemSelector" : ".video-link",
    "fields" : [
        {
            "property"         : "id",
            "propertySelector" : "img",
            "propertyType"     : "attribute",
            "propertyName"     : "id",
            "propertyRegex"    : ""
        },
        {
            "property"         : "title",
            "propertySelector" : "img",
            "propertyType"     : "attribute",
            "propertyName"     : "alt",
            "propertyRegex"    : ""
        },
        {
            "property"         : "thumb",
            "propertySelector" : "img",
            "propertyType"     : "attribute",
            "propertyName"     : "src",
            "propertyRegex"    : ""
        },
        {
            "property"         : "poster",
            "propertySelector" : "img",
            "propertyType"     : "attribute",
            "propertyName"     : "src",
            "propertyRegex"    : ""
        },
        {
            "property"         : "duration",
            "propertySelector" : ".duration",
            "propertyType"     : "content",
            "propertyName"     : "",
            "propertyRegex"    : ""
        },
        {
            "property"         : "url",
            "propertySelector" : "",
            "propertyType"     : "attribute",
            "propertyName"     : "href",
            "propertyRegex"    : "/^\\//https:\\/\\/www.yespornplease.com\\//"
        }
    ]
}
