{
    "itemSelector" : ".video-item",
    "fields" : [
        {
            "property"         : "id",
            "propertySelector" : "a.frame",
            "propertyType"     : "attribute",
            "propertyName"     : "data-video-id",
            "propertyRegex"    : ""
        },
        {
            "property"         : "title",
            "propertySelector" : "div.video-title a",
            "propertyType"     : "content",
            "propertyName"     : "",
            "propertyRegex"    : ""
        },
        {
            "property"         : "thumb",
            "propertySelector" : "img",
            "propertyType"     : "attribute",
            "propertyName"     : "src",
            "propertyRegex"    : "#^//#https://#"
        },
        {
            "property"         : "poster",
            "propertySelector" : "img",
            "propertyType"     : "attribute",
            "propertyName"     : "src",
            "propertyRegex"    : "#^//#https://#"
        },
        {
            "property"         : "duration",
            "propertySelector" : "span.time",
            "propertyType"     : "content",
            "propertyName"     : "",
            "propertyRegex"    : ""
        },
        {
            "property"         : "mediabook",
            "propertySelector" : "a.video",
            "propertyType"     : "attribute",
            "propertyName"     : "data-clip",
            "propertyRegex"    : "/&amp;/&/"
        },
        {
            "property"         : "url",
            "propertySelector" : "a.frame",
            "propertyType"     : "attribute",
            "propertyName"     : "href",
            "propertyRegex"    : "/^\\//http:\\/\\/www.youjizz.com\\//"
        }
    ]
}
