{
    "itemSelector" : ".video-box",
    "fields" : [
        {
            "property"         : "id",
            "propertySelector" : "",
            "propertyType"     : "attribute",
            "propertyName"     : "data-video-id",
            "propertyRegex"    : ""
        },
        {
            "property"         : "title",
            "propertySelector" : ".video-box-image img",
            "propertyType"     : "attribute",
            "propertyName"     : "alt",
            "propertyRegex"    : ""
        },
        {
            "property"         : "thumb",
            "propertySelector" : ".video-box-image img",
            "propertyType"     : "attribute",
            "propertyName"     : "data-thumbnail",
            "propertyRegex"    : ""
        },
        {
            "property"         : "poster",
            "propertySelector" : ".video-box-image img",
            "propertyType"     : "attribute",
            "propertyName"     : "data-thumbnail",
            "propertyRegex"    : "#m=[a-zA-Z0-9]+?\\/##"
        },
        {
            "property"         : "mediabook",
            "propertySelector" : ".js-mediabook",
            "propertyType"     : "attribute",
            "propertyName"     : "data-mediabook",
            "propertyRegex"    : ""
        },
        {
            "property"         : "duration",
            "propertySelector" : ".video-duration",
            "propertyType"     : "content",
            "propertyName"     : "",
            "propertyRegex"    : "/ //"
        },
        {
            "property"         : "url",
            "propertySelector" : "a.video-box-image",
            "propertyType"     : "attribute",
            "propertyName"     : "href",
            "propertyRegex"    : "/^\\//https:\\/\\/www.youporn.com\\//"
        }
    ]
}
